…
``` r
pups_df <- janitor::clean_names(pups_df)
```

## select

let’s select some columns

``` r
select(litters_df, group, litter_number, gd0_weight, pups_born_alive)
```

    ## # A tibble: 49 x 4
    ##    group litter_number   gd0_weight pups_born_alive
    ##    <chr> <chr>                <dbl>           <dbl>
    ##  1 Con7  #85                   19.7               3
    ##  2 Con7  #1/2/95/2             27                 8
    ##  3 Con7  #5/5/3/83/3-3         26                 6
    ##  4 Con7  #5/4/2/95/2           28.5               5
    ##  5 Con7  #4/2/95/3-3           NA                 6
    ##  6 Con7  #2/2/95/3-2           NA                 6
    ##  7 Con7  #1/5/3/83/3-3/2       NA                 9
    ##  8 Con8  #3/83/3-3             NA                 9
    ##  9 Con8  #2/95/3               NA                 8
    ## 10 Con8  #3/5/2/2/95           28.5               8
    ## # ... with 39 more rows

``` r
select(litters_df, group, gd0_weight, gd18_weight)
```

    ## # A tibble: 49 x 3
    ##    group gd0_weight gd18_weight
    ##    <chr>      <dbl>       <dbl>
    ##  1 Con7        19.7        34.7
    ##  2 Con7        27          42  
    ##  3 Con7        26          41.4
    ##  4 Con7        28.5        44.1
    ##  5 Con7        NA          NA  
    ##  6 Con7        NA          NA  
    ##  7 Con7        NA          NA  
    ##  8 Con8        NA          NA  
    ##  9 Con8        NA          NA  
    ## 10 Con8        28.5        NA  
    ## # ... with 39 more rows

``` r
select(litters_df, group, gd0_weight:gd_of_birth)
```

    ## # A tibble: 49 x 4
    ##    group gd0_weight gd18_weight gd_of_birth
    ##    <chr>      <dbl>       <dbl>       <dbl>
    ##  1 Con7        19.7        34.7          20
    ##  2 Con7        27          42            19
    ##  3 Con7        26          41.4          19
    ##  4 Con7        28.5        44.1          19
    ##  5 Con7        NA          NA            20
    ##  6 Con7        NA          NA            20
    ##  7 Con7        NA          NA            20
    ##  8 Con8        NA          NA            20
    ##  9 Con8        NA          NA            20
    ## 10 Con8        28.5        NA            20
    ## # ... with 39 more rows

``` r
select(litters_df, -litter_number)
```

    ## # A tibble: 49 x 7
    ##    group gd0_weight gd18_weight gd_of_birth pups_born_alive pups_dead_birth
    ##    <chr>      <dbl>       <dbl>       <dbl>           <dbl>           <dbl>
    ##  1 Con7        19.7        34.7          20               3               4
    ##  2 Con7        27          42            19               8               0
    ##  3 Con7        26          41.4          19               6               0
    ##  4 Con7        28.5        44.1          19               5               1
    ##  5 Con7        NA          NA            20               6               0
    ##  6 Con7        NA          NA            20               6               0
    ##  7 Con7        NA          NA            20               9               0
    ##  8 Con8        NA          NA            20               9               1
    ##  9 Con8        NA          NA            20               8               0
    ## 10 Con8        28.5        NA            20               8               0
    ## # ... with 39 more rows, and 1 more variable: pups_survive <dbl>

``` r
##select all columns except litter_number
select(litters_df, group, starts_with("pups")) ##select columns start with pups
```

    ## # A tibble: 49 x 4
    ##    group pups_born_alive pups_dead_birth pups_survive
    ##    <chr>           <dbl>           <dbl>        <dbl>
    ##  1 Con7                3               4            3
    ##  2 Con7                8               0            7
    ##  3 Con7                6               0            5
    ##  4 Con7                5               1            4
    ##  5 Con7                6               0            6
    ##  6 Con7                6               0            4
    ##  7 Con7                9               0            9
    ##  8 Con8                9               1            8
    ##  9 Con8                8               0            8
    ## 10 Con8                8               0            8
    ## # ... with 39 more rows

``` r
select(litters_df, GROUP = group, litter_number)
```

    ## # A tibble: 49 x 2
    ##    GROUP litter_number  
    ##    <chr> <chr>          
    ##  1 Con7  #85            
    ##  2 Con7  #1/2/95/2      
    ##  3 Con7  #5/5/3/83/3-3  
    ##  4 Con7  #5/4/2/95/2    
    ##  5 Con7  #4/2/95/3-3    
    ##  6 Con7  #2/2/95/3-2    
    ##  7 Con7  #1/5/3/83/3-3/2
    ##  8 Con8  #3/83/3-3      
    ##  9 Con8  #2/95/3        
    ## 10 Con8  #3/5/2/2/95    
    ## # ... with 39 more rows

``` r
rename(litters_df, GROUP = group)
```

    ## # A tibble: 49 x 8
    ##    GROUP litter_number   gd0_weight gd18_weight gd_of_birth pups_born_alive
    ##    <chr> <chr>                <dbl>       <dbl>       <dbl>           <dbl>
    ##  1 Con7  #85                   19.7        34.7          20               3
    ##  2 Con7  #1/2/95/2             27          42            19               8
    ##  3 Con7  #5/5/3/83/3-3         26          41.4          19               6
    ##  4 Con7  #5/4/2/95/2           28.5        44.1          19               5
    ##  5 Con7  #4/2/95/3-3           NA          NA            20               6
    ##  6 Con7  #2/2/95/3-2           NA          NA            20               6
    ##  7 Con7  #1/5/3/83/3-3/2       NA          NA            20               9
    ##  8 Con8  #3/83/3-3             NA          NA            20               9
    ##  9 Con8  #2/95/3               NA          NA            20               8
    ## 10 Con8  #3/5/2/2/95           28.5        NA            20               8
    ## # ... with 39 more rows, and 2 more variables: pups_dead_birth <dbl>,
    ## #   pups_survive <dbl>

``` r
## rename group column

select(litters_df, litter_number, everything())
```

    ## # A tibble: 49 x 8
    ##    litter_number   group gd0_weight gd18_weight gd_of_birth pups_born_alive
    ##    <chr>           <chr>      <dbl>       <dbl>       <dbl>           <dbl>
    ##  1 #85             Con7        19.7        34.7          20               3
    ##  2 #1/2/95/2       Con7        27          42            19               8
    ##  3 #5/5/3/83/3-3   Con7        26          41.4          19               6
    ##  4 #5/4/2/95/2     Con7        28.5        44.1          19               5
    ##  5 #4/2/95/3-3     Con7        NA          NA            20               6
    ##  6 #2/2/95/3-2     Con7        NA          NA            20               6
    ##  7 #1/5/3/83/3-3/2 Con7        NA          NA            20               9
    ##  8 #3/83/3-3       Con8        NA          NA            20               9
    ##  9 #2/95/3         Con8        NA          NA            20               8
    ## 10 #3/5/2/2/95     Con8        28.5        NA            20               8
    ## # ... with 39 more rows, and 2 more variables: pups_dead_birth <dbl>,
    ## #   pups_survive <dbl>

``` r
relocate(litters_df, litter_number)
```

    ## # A tibble: 49 x 8
    ##    litter_number   group gd0_weight gd18_weight gd_of_birth pups_born_alive
    ##    <chr>           <chr>      <dbl>       <dbl>       <dbl>           <dbl>
    ##  1 #85             Con7        19.7        34.7          20               3
    ##  2 #1/2/95/2       Con7        27          42            19               8
    ##  3 #5/5/3/83/3-3   Con7        26          41.4          19               6
    ##  4 #5/4/2/95/2     Con7        28.5        44.1          19               5
    ##  5 #4/2/95/3-3     Con7        NA          NA            20               6
    ##  6 #2/2/95/3-2     Con7        NA          NA            20               6
    ##  7 #1/5/3/83/3-3/2 Con7        NA          NA            20               9
    ##  8 #3/83/3-3       Con8        NA          NA            20               9
    ##  9 #2/95/3         Con8        NA          NA            20               8
    ## 10 #3/5/2/2/95     Con8        28.5        NA            20               8
    ## # ... with 39 more rows, and 2 more variables: pups_dead_birth <dbl>,
    ## #   pups_survive <dbl>

``` r
## relocate the column to the first one
```

## in class practice

``` r
select(pups_df, litter_number, sex, pd_ears)
```

    ## # A tibble: 313 x 3
    ##    litter_number   sex pd_ears
    ##    <chr>         <dbl>   <dbl>
    ##  1 #85               1       4
    ##  2 #85               1       4
    ##  3 #1/2/95/2         1       5
    ##  4 #1/2/95/2         1       5
    ##  5 #5/5/3/83/3-3     1       5
    ##  6 #5/5/3/83/3-3     1       5
    ##  7 #5/4/2/95/2       1      NA
    ##  8 #4/2/95/3-3       1       4
    ##  9 #4/2/95/3-3       1       4
    ## 10 #2/2/95/3-2       1       4
    ## # ... with 303 more rows

## filter

Let’s get rid of rows

``` r
filter(litters_df, gd_of_birth == 20)
```

    ## # A tibble: 32 x 8
    ##    group litter_number   gd0_weight gd18_weight gd_of_birth pups_born_alive
    ##    <chr> <chr>                <dbl>       <dbl>       <dbl>           <dbl>
    ##  1 Con7  #85                   19.7        34.7          20               3
    ##  2 Con7  #4/2/95/3-3           NA          NA            20               6
    ##  3 Con7  #2/2/95/3-2           NA          NA            20               6
    ##  4 Con7  #1/5/3/83/3-3/2       NA          NA            20               9
    ##  5 Con8  #3/83/3-3             NA          NA            20               9
    ##  6 Con8  #2/95/3               NA          NA            20               8
    ##  7 Con8  #3/5/2/2/95           28.5        NA            20               8
    ##  8 Con8  #1/6/2/2/95-2         NA          NA            20               7
    ##  9 Con8  #3/5/3/83/3-3-2       NA          NA            20               8
    ## 10 Con8  #3/6/2/2/95-3         NA          NA            20               7
    ## # ... with 22 more rows, and 2 more variables: pups_dead_birth <dbl>,
    ## #   pups_survive <dbl>
…
``` r
filter(litters_df, pups_survive !=4) ##pup_survive not equal to 4
```

    ## # A tibble: 44 x 8
    ##    group litter_number   gd0_weight gd18_weight gd_of_birth pups_born_alive
    ##    <chr> <chr>                <dbl>       <dbl>       <dbl>           <dbl>
    ##  1 Con7  #85                   19.7        34.7          20               3
    ##  2 Con7  #1/2/95/2             27          42            19               8
    ##  3 Con7  #5/5/3/83/3-3         26          41.4          19               6
    ##  4 Con7  #4/2/95/3-3           NA          NA            20               6
    ##  5 Con7  #1/5/3/83/3-3/2       NA          NA            20               9
    ##  6 Con8  #3/83/3-3             NA          NA            20               9
    ##  7 Con8  #2/95/3               NA          NA            20               8
    ##  8 Con8  #3/5/2/2/95           28.5        NA            20               8
    ##  9 Con8  #5/4/3/83/3           28          NA            19               9
    ## 10 Con8  #1/6/2/2/95-2         NA          NA            20               7
    ## # ... with 34 more rows, and 2 more variables: pups_dead_birth <dbl>,
    ## #   pups_survive <dbl>

``` r
filter(litters_df, !(group == "Con7")) ## not con7
```

    ## # A tibble: 42 x 8
    ##    group litter_number   gd0_weight gd18_weight gd_of_birth pups_born_alive
    ##    <chr> <chr>                <dbl>       <dbl>       <dbl>           <dbl>
    ##  1 Con8  #3/83/3-3             NA          NA            20               9
    ##  2 Con8  #2/95/3               NA          NA            20               8
    ##  3 Con8  #3/5/2/2/95           28.5        NA            20               8
    ##  4 Con8  #5/4/3/83/3           28          NA            19               9
    ##  5 Con8  #1/6/2/2/95-2         NA          NA            20               7
    ##  6 Con8  #3/5/3/83/3-3-2       NA          NA            20               8
    ##  7 Con8  #2/2/95/2             NA          NA            19               5
    ##  8 Con8  #3/6/2/2/95-3         NA          NA            20               7
    ##  9 Mod7  #59                   17          33.4          19               8
    ## 10 Mod7  #103                  21.4        42.1          19               9
    ## # ... with 32 more rows, and 2 more variables: pups_dead_birth <dbl>,
    ## #   pups_survive <dbl>
…
    ## # A tibble: 4 x 8
    ##   group litter_number   gd0_weight gd18_weight gd_of_birth pups_born_alive
    ##   <chr> <chr>                <dbl>       <dbl>       <dbl>           <dbl>
    ## 1 Con7  #85                   19.7        34.7          20               3
    ## 2 Con7  #4/2/95/3-3           NA          NA            20               6
    ## 3 Con7  #2/2/95/3-2           NA          NA            20               6
    ## 4 Con7  #1/5/3/83/3-3/2       NA          NA            20               9
    ## # ... with 2 more variables: pups_dead_birth <dbl>, pups_survive <dbl>

``` r
drop_na(litters_df)
```

    ## # A tibble: 31 x 8
    ##    group litter_number gd0_weight gd18_weight gd_of_birth pups_born_alive
    ##    <chr> <chr>              <dbl>       <dbl>       <dbl>           <dbl>
    ##  1 Con7  #85                 19.7        34.7          20               3
    ##  2 Con7  #1/2/95/2           27          42            19               8
    ##  3 Con7  #5/5/3/83/3-3       26          41.4          19               6
    ##  4 Con7  #5/4/2/95/2         28.5        44.1          19               5
    ##  5 Mod7  #59                 17          33.4          19               8
    ##  6 Mod7  #103                21.4        42.1          19               9
    ##  7 Mod7  #3/82/3-2           28          45.9          20               5
    ##  8 Mod7  #5/3/83/5-2         22.6        37            19               5
    ##  9 Mod7  #106                21.7        37.8          20               5
    ## 10 Mod7  #94/2               24.4        42.9          19               7
    ## # ... with 21 more rows, and 2 more variables: pups_dead_birth <dbl>,
    ## #   pups_survive <dbl>

## in class practice

``` r
filter(pups_df, sex == 1)
```

    ## # A tibble: 155 x 6
    ##    litter_number   sex pd_ears pd_eyes pd_pivot pd_walk
    ##    <chr>         <dbl>   <dbl>   <dbl>    <dbl>   <dbl>
    ##  1 #85               1       4      13        7      11
    ##  2 #85               1       4      13        7      12
    ##  3 #1/2/95/2         1       5      13        7       9
    ##  4 #1/2/95/2         1       5      13        8      10
    ##  5 #5/5/3/83/3-3     1       5      13        8      10
    ##  6 #5/5/3/83/3-3     1       5      14        6       9
    ##  7 #5/4/2/95/2       1      NA      14        5       9
    ##  8 #4/2/95/3-3       1       4      13        6       8
    ##  9 #4/2/95/3-3       1       4      13        7       9
    ## 10 #2/2/95/3-2       1       4      NA        8      10
    ## # ... with 145 more rows

``` r
filter(pups_df, pd_walk < 11, sex == 2)
```

    ## # A tibble: 127 x 6
    ##    litter_number   sex pd_ears pd_eyes pd_pivot pd_walk
    ##    <chr>         <dbl>   <dbl>   <dbl>    <dbl>   <dbl>
    ##  1 #1/2/95/2         2       4      13        7       9
    ##  2 #1/2/95/2         2       4      13        7      10
    ##  3 #1/2/95/2         2       5      13        8      10
    ##  4 #1/2/95/2         2       5      13        8      10
    ##  5 #1/2/95/2         2       5      13        6      10
    ##  6 #5/5/3/83/3-3     2       5      13        8      10
    ##  7 #5/5/3/83/3-3     2       5      14        7      10
    ##  8 #5/5/3/83/3-3     2       5      14        8      10
    ##  9 #5/4/2/95/2       2      NA      14        7      10
    ## 10 #5/4/2/95/2       2      NA      14        7      10
    ## # ... with 117 more rows

## mutate

let’s add or change column

``` r
mutate(litters_df, weight_change = gd18_weight - gd0_weight) ## add a weight change columns 
```

    ## # A tibble: 49 x 9
    ##    group litter_number   gd0_weight gd18_weight gd_of_birth pups_born_alive
    ##    <chr> <chr>                <dbl>       <dbl>       <dbl>           <dbl>
    ##  1 Con7  #85                   19.7        34.7          20               3
    ##  2 Con7  #1/2/95/2             27          42            19               8
    ##  3 Con7  #5/5/3/83/3-3         26          41.4          19               6
    ##  4 Con7  #5/4/2/95/2           28.5        44.1          19               5
    ##  5 Con7  #4/2/95/3-3           NA          NA            20               6
    ##  6 Con7  #2/2/95/3-2           NA          NA            20               6
    ##  7 Con7  #1/5/3/83/3-3/2       NA          NA            20               9
    ##  8 Con8  #3/83/3-3             NA          NA            20               9
    ##  9 Con8  #2/95/3               NA          NA            20               8
    ## 10 Con8  #3/5/2/2/95           28.5        NA            20               8
    ## # ... with 39 more rows, and 3 more variables: pups_dead_birth <dbl>,
    ## #   pups_survive <dbl>, weight_change <dbl>

``` r
mutate(
  litters_df,
  weight_change = gd18_weight - gd0_weight,
  group = str_to_lower(group) ## make group variables into lower case
)
```

    ## # A tibble: 49 x 9
    ##    group litter_number   gd0_weight gd18_weight gd_of_birth pups_born_alive
    ##    <chr> <chr>                <dbl>       <dbl>       <dbl>           <dbl>
    ##  1 con7  #85                   19.7        34.7          20               3
    ##  2 con7  #1/2/95/2             27          42            19               8
    ##  3 con7  #5/5/3/83/3-3         26          41.4          19               6
    ##  4 con7  #5/4/2/95/2           28.5        44.1          19               5
    ##  5 con7  #4/2/95/3-3           NA          NA            20               6
    ##  6 con7  #2/2/95/3-2           NA          NA            20               6
    ##  7 con7  #1/5/3/83/3-3/2       NA          NA            20               9
    ##  8 con8  #3/83/3-3             NA          NA            20               9
    ##  9 con8  #2/95/3               NA          NA            20               8
    ## 10 con8  #3/5/2/2/95           28.5        NA            20               8
    ## # ... with 39 more rows, and 3 more variables: pups_dead_birth <dbl>,
    ## #   pups_survive <dbl>, weight_change <dbl>

## arrange

let’s rearrange the data

``` r
arrange(litters_df, gd_of_birth, gd0_weight) 
```

    ## # A tibble: 49 x 8
    ##    group litter_number gd0_weight gd18_weight gd_of_birth pups_born_alive
    ##    <chr> <chr>              <dbl>       <dbl>       <dbl>           <dbl>
    ##  1 Mod7  #59                 17          33.4          19               8
    ##  2 Mod7  #62                 19.5        35.9          19               7
    ##  3 Mod7  #103                21.4        42.1          19               9
    ##  4 Mod7  #5/3/83/5-2         22.6        37            19               5
    ##  5 Mod7  #4/2/95/2           23.5        NA            19               9
    ##  6 Low7  #112                23.9        40.5          19               6
    ##  7 Mod7  #94/2               24.4        42.9          19               7
    ##  8 Low8  #79                 25.4        43.8          19               8
    ##  9 Con7  #5/5/3/83/3-3       26          41.4          19               6
    ## 10 Con7  #1/2/95/2           27          42            19               8
    ## # ... with 39 more rows, and 2 more variables: pups_dead_birth <dbl>,
    ## #   pups_survive <dbl>
…
